{
  "designs": [
    {
      "designNumber": "004247823-0007",
      "applicationNumber": "004247823",
      "applicantReference": "17-41-119",
      "locarnoClasses": [
        "08.06"
      ],
      "applicants": [
        {
          "office": "EM",
          "identifier": "854815"
        }
      ],
      "representatives": [
        {
          "office": "EM",
          "identifier": "40347"
        }
      ],
      "applicationDate": "2017-09-08",
      "registrationDate": "2017-09-08",
      "expiryDate": "2022-09-08",
      "status": "EXPIRED"
    },
    {
      "designNumber": "004247823-0008",
      "applicationNumber": "004247823",
      "applicantReference": "17-41-119",
      "locarnoClasses": [
        "08.06"
      ],
      "applicants": [
        {
          "office": "EM",
          "identifier": "854815"
        }
      ],
      "representatives": [
        {
          "office": "EM",
          "identifier": "40347"
        }
      ],
      "applicationDate": "2017-09-08",
      "registrationDate": "2017-09-08",
      "expiryDate": "2022-09-08",
      "status": "EXPIRED"
    },
    {
      "designNumber": "004247823-0009",
      "applicationNumber": "004247823",
      "applicantReference": "17-41-119",
      "locarnoClasses": [
        "08.06"
      ],
      "applicants": [
        {
          "office": "EM",
          "identifier": "854815"
        }
      ],
      "representatives": [
        {
          "office": "EM",
          "identifier": "40347"
        }
      ],
      "applicationDate": "2017-09-08",
      "registrationDate": "2017-09-08",
      "expiryDate": "2022-09-08",
      "status": "EXPIRED"
    },
    {
      "designNumber": "004247823-0010",
      "applicationNumber": "004247823",
      "applicantReference": "17-41-119",
      "locarnoClasses": [
        "08.08"
      ],
      "applicants": [
        {
          "office": "EM",
          "identifier": "854815"
        }
      ],
      "representatives": [
        {
          "office": "EM",
          "identifier": "40347"
        }
      ],
      "applicationDate": "2017-09-08",
      "registrationDate": "2017-09-08",
      "expiryDate": "2022-09-08",
      "status": "EXPIRED"
    },
    {
      "designNumber": "004247823-0011",
      "applicationNumber": "004247823",
      "applicantReference": "17-41-119",
      "locarnoClasses": [
        "08.08"
      ],
      "applicants": [
        {
          "office": "EM",
          "identifier": "854815"
        }
      ],
      "representatives": [
        {
          "office": "EM",
          "identifier": "40347"
        }
      ],
      "applicationDate": "2017-09-08",
      "registrationDate": "2017-09-08",
      "expiryDate": "2022-09-08",
      "status": "EXPIRED"
    },
    {
      "designNumber": "004247823-0012",
      "applicationNumber": "004247823",
      "applicantReference": "17-41-119",
      "locarnoClasses": [
        "08.08"
      ],
      "applicants": [
        {
          "office": "EM",
          "identifier": "854815"
        }
      ],
      "representatives": [
        {
          "office": "EM",
          "identifier": "40347"
        }
      ],
      "applicationDate": "2017-09-08",
      "registrationDate": "2017-09-08",
      "expiryDate": "2022-09-08",
      "status": "EXPIRED"
    },
    {
      "designNumber": "004247823-0013",
      "applicationNumber": "004247823",
      "applicantReference": "17-41-119",
      "locarnoClasses": [
        "08.08"
      ],
      "applicants": [
        {
          "office": "EM",
          "identifier": "854815"
        }
      ],
      "representatives": [
        {
          "office": "EM",
          "identifier": "40347"
        }
      ],
      "applicationDate": "2017-09-08",
      "registrationDate": "2017-09-08",
      "expiryDate": "2022-09-08",
      "status": "EXPIRED"
    },
    {
      "designNumber": "004247823-0014",
      "applicationNumber": "004247823",
      "applicantReference": "17-41-119",
      "locarnoClasses": [
        "08.08"
      ],
      "applicants": [
        {
          "office": "EM",
          "identifier": "854815"
        }
      ],
      "representatives": [
        {
          "office": "EM",
          "identifier": "40347"
        }
      ],
      "applicationDate": "2017-09-08",
      "registrationDate": "2017-09-08",
      "expiryDate": "2022-09-08",
      "status": "EXPIRED"
    },
    {
      "designNumber": "004247823-0015",
      "applicationNumber": "004247823",
      "applicantReference": "17-41-119",
      "locarnoClasses": [
        "08.08"
      ],
      "applicants": [
        {
          "office": "EM",
          "identifier": "854815"
        }
      ],
      "representatives": [
        {
          "office": "EM",
          "identifier": "40347"
        }
      ],
      "applicationDate": "2017-09-08",
      "registrationDate": "2017-09-08",
      "expiryDate": "2022-09-08",
      "status": "EXPIRED"
    },
    {
      "designNumber": "004247823-0016",
      "applicationNumber": "004247823",
      "applicantReference": "17-41-119",
      "locarnoClasses": [
        "08.08"
      ],
      "applicants": [
        {
          "office": "EM",
          "identifier": "854815"
        }
      ],
      "representatives": [
        {
          "office": "EM",
          "identifier": "40347"
        }
      ],
      "applicationDate": "2017-09-08",
      "registrationDate": "2017-09-08",
      "expiryDate": "2022-09-08",
      "status": "EXPIRED"
    }
  ],
  "totalElements": 1517413,
  "totalPages": 151741,
  "size": 10,
  "page": 0
}