{
  "trademarks": [
    {
      "applicants": [
        {
          "identifier": "18363",
          "name": "Berentzen-Gruppe Aktiengesellschaft",
          "office": "EM"
        }
      ],
      "applicationDate": "1996-12-02",
      "applicationNumber": "000428557",
      "expiryDate": "2026-12-02",
      "markBasis": "EU_TRADEMARK",
      "markFeature": "WORD",
      "markKind": "INDIVIDUAL",
      "niceClasses": [
        30,
        32,
        33
      ],
      "publications": [
        {
          "bulletinNumber": "1998/030",
          "publicationDate": "1998-04-27",
          "publicationSection": "A.1"
        },
        {
          "bulletinNumber": "1999/003",
          "publicationDate": "1999-01-11",
          "publicationSection": "B.1"
        },
        {
          "bulletinNumber": "2006/050",
          "publicationDate": "2006-12-11",
          "publicationSection": "D.1"
        },
        {
          "bulletinNumber": "2007/016",
          "publicationDate": "2007-04-23",
          "publicationSection": "C.2.4"
        },
        {
          "bulletinNumber": "2007/027",
          "publicationDate": "2007-06-25",
          "publicationSection": "C.1.1"
        },
        {
          "bulletinNumber": "2016/232",
          "publicationDate": "2016-12-07",
          "publicationSection": "D.1"
        }
      ],
      "registrationDate": "1998-10-30",
      "status": "REGISTERED",
      "wordMarkSpecification": {
        "verbalElement": "Golden Apple"
      }
    },
    {
      "applicantReference": "XE0026",
      "applicants": [
        {
          "identifier": "103342",
          "name": "Finlandia Vodka Worldwide Ltd",
          "office": "EM"
        }
      ],
      "applicationDate": "1996-04-01",
      "applicationNumber": "000111153",
      "expiryDate": "2006-04-01",
      "markBasis": "EU_TRADEMARK",
      "markFeature": "FIGURATIVE",
      "markKind": "INDIVIDUAL",
      "niceClasses": [
        33
      ],
      "publications": [
        {
          "bulletinNumber": "1997/026",
          "publicationDate": "1997-11-03",
          "publicationSection": "A.1"
        },
        {
          "bulletinNumber": "1998/063",
          "publicationDate": "1998-08-24",
          "publicationSection": "B.1"
        },
        {
          "bulletinNumber": "2007/039",
          "publicationDate": "2007-08-06",
          "publicationSection": "C.1.3"
        },
        {
          "bulletinNumber": "2007/043",
          "publicationDate": "2007-08-20",
          "publicationSection": "C.2.1"
        },
        {
          "bulletinNumber": "2007/051",
          "publicationDate": "2007-09-17",
          "publicationSection": "C.2.2"
        }
      ],
      "registrationDate": "1998-05-22",
      "representatives": [
        {
          "identifier": "11849",
          "name": "ELZABURU",
          "office": "EM"
        }
      ],
      "status": "EXPIRED",
      "wordMarkSpecification": {
        "verbalElement": "FINLANDIA PINEAPPLE"
      }
    },
    {
      "applicantReference": "12020",
      "applicants": [
        {
          "identifier": "46215",
          "name": "ENVASADOS EVA S.A.",
          "office": "EM"
        }
      ],
      "applicationDate": "1998-07-07",
      "applicationNumber": "000869644",
      "markBasis": "EU_TRADEMARK",
      "markFeature": "FIGURATIVE",
      "markKind": "INDIVIDUAL",
      "niceClasses": [
        32
      ],
      "publications": [
        {
          "bulletinNumber": "1999/025",
          "publicationDate": "1999-03-29",
          "publicationSection": "A.1"
        },
        {
          "bulletinNumber": "2006/006",
          "publicationDate": "2006-02-06",
          "publicationSection": "A.2.4.1"
        },
        {
          "bulletinNumber": "2008/050",
          "publicationDate": "2008-12-15",
          "publicationSection": "C.2.1"
        }
      ],
      "representatives": [
        {
          "identifier": "14844",
          "name": "BERMEJO & JACOBSEN PATENTES-MARCAS S.L.",
          "office": "EM"
        }
      ],
      "status": "REFUSED",
      "wordMarkSpecification": {
        "verbalElement": "Apetitosa NATURAL SPARKLING APPLE JUICE TORBELLINA Apetitosa eva"
      }
    },
    {
      "applicants": [
        {
          "name": "Apple Inc.",
          "office": "WO"
        }
      ],
      "applicationNumber": "W00928475",
      "designationDate": "2007-05-07",
      "expiryDate": "2027-05-07",
      "markBasis": "INTERNATIONAL_TRADEMARK",
      "markFeature": "WORD",
      "markKind": "INDIVIDUAL",
      "niceClasses": [
        9
      ],
      "publications": [
        {
          "bulletinNumber": "2007/042",
          "publicationDate": "2007-08-13",
          "publicationSection": "M.1"
        },
        {
          "bulletinNumber": "2008/024",
          "publicationDate": "2008-06-16",
          "publicationSection": "M.3.1"
        }
      ],
      "registrationDate": "2007-05-07",
      "representatives": [
        {
          "identifier": "41701",
          "name": "LOCKE LORD LLP",
          "office": "EM"
        }
      ],
      "status": "ACCEPTED",
      "wordMarkSpecification": {
        "verbalElement": "APPLE TV"
      }
    },
    {
      "applicantReference": "BHM/AW/CTM/96283",
      "applicants": [
        {
          "identifier": "547507",
          "name": "Appvion",
          "office": "EM"
        }
      ],
      "applicationDate": "1996-04-01",
      "applicationNumber": "000049932",
      "expiryDate": "2016-04-01",
      "markBasis": "EU_TRADEMARK",
      "markFeature": "WORD",
      "markKind": "INDIVIDUAL",
      "niceClasses": [
        16
      ],
      "publications": [
        {
          "bulletinNumber": "1997/009",
          "publicationDate": "1997-07-07",
          "publicationSection": "A.1"
        },
        {
          "bulletinNumber": "2006/028",
          "publicationDate": "2006-07-10",
          "publicationSection": "D.1"
        },
        {
          "bulletinNumber": "2012/162",
          "publicationDate": "2012-08-27",
          "publicationSection": "C.2.1"
        },
        {
          "bulletinNumber": "2013/001",
          "publicationDate": "2013-01-02",
          "publicationSection": "C.1.3"
        },
        {
          "bulletinNumber": "2013/114",
          "publicationDate": "2013-06-19",
          "publicationSection": "C.1.3"
        },
        {
          "bulletinNumber": "2013/240",
          "publicationDate": "2013-12-18",
          "publicationSection": "C.2.1"
        },
        {
          "bulletinNumber": "2013/240",
          "publicationDate": "2013-12-18",
          "publicationSection": "C.2.1"
        }
      ],
      "registrationDate": "1997-11-14",
      "representatives": [
        {
          "identifier": "10095",
          "name": "WILDBORE & GIBBONS",
          "office": "EM"
        }
      ],
      "status": "EXPIRED",
      "wordMarkSpecification": {
        "verbalElement": "APPLETON PAPERS"
      }
    },
    {
      "applicants": [
        {
          "name": "SABMILLER\nINTERNATIONAL BRANDS LIMITED",
          "office": "WO"
        }
      ],
      "applicationNumber": "W00895170",
      "designationDate": "2006-07-20",
      "expiryDate": "2016-07-20",
      "markBasis": "INTERNATIONAL_TRADEMARK",
      "markFeature": "FIGURATIVE",
      "markKind": "INDIVIDUAL",
      "niceClasses": [
        32
      ],
      "publications": [
        {
          "bulletinNumber": "2006/041",
          "publicationDate": "2006-10-09",
          "publicationSection": "M.1"
        },
        {
          "bulletinNumber": "2007/042",
          "publicationDate": "2007-08-13",
          "publicationSection": "M.3.1"
        }
      ],
      "registrationDate": "2006-07-20",
      "representatives": [
        {
          "identifier": "16348",
          "name": "MERKENBUREAU BOUMA B.V.",
          "office": "EM"
        }
      ],
      "status": "REMOVED_FROM_REGISTER",
      "wordMarkSpecification": {
        "verbalElement": "Appletiser"
      }
    },
    {
      "applicantReference": "RJP/T6653",
      "applicants": [
        {
          "identifier": "39307",
          "name": "APPLEYARD LEES",
          "office": "EM"
        }
      ],
      "applicationDate": "1998-03-02",
      "applicationNumber": "000761379",
      "expiryDate": "2008-03-02",
      "markBasis": "EU_TRADEMARK",
      "markFeature": "WORD",
      "markKind": "INDIVIDUAL",
      "niceClasses": [
        35,
        41,
        42
      ],
      "publications": [
        {
          "bulletinNumber": "1998/092",
          "publicationDate": "1998-11-30",
          "publicationSection": "A.1"
        },
        {
          "bulletinNumber": "1999/075",
          "publicationDate": "1999-09-20",
          "publicationSection": "B.2"
        }
      ],
      "registrationDate": "1999-08-02",
      "representatives": [
        {
          "identifier": "10748",
          "name": "APPLEYARD LEES IP LLP",
          "office": "EM"
        }
      ],
      "status": "EXPIRED",
      "wordMarkSpecification": {
        "verbalElement": "APPLEYARD LEES"
      }
    },
    {
      "applicantReference": "001",
      "applicants": [
        {
          "identifier": "505",
          "name": "ENRIQUE BERNAT F.",
          "office": "EM"
        }
      ],
      "applicationDate": "1996-05-02",
      "applicationNumber": "000256016",
      "expiryDate": "2006-05-02",
      "markBasis": "EU_TRADEMARK",
      "markFeature": "FIGURATIVE",
      "markKind": "INDIVIDUAL",
      "niceClasses": [
        5,
        25,
        30
      ],
      "publications": [
        {
          "bulletinNumber": "1998/014",
          "publicationDate": "1998-03-02",
          "publicationSection": "A.1"
        },
        {
          "bulletinNumber": "1999/009",
          "publicationDate": "1999-02-15",
          "publicationSection": "B.2"
        },
        {
          "bulletinNumber": "2007/027",
          "publicationDate": "2007-06-25",
          "publicationSection": "C.1.3"
        },
        {
          "bulletinNumber": "2007/034",
          "publicationDate": "2007-07-16",
          "publicationSection": "C.2.3"
        },
        {
          "bulletinNumber": "2008/020",
          "publicationDate": "2008-05-19",
          "publicationSection": "C.2.2"
        }
      ],
      "registrationDate": "1998-10-14",
      "representatives": [
        {
          "identifier": "37550",
          "name": "Alessandro Biraghi",
          "office": "EM"
        }
      ],
      "status": "EXPIRED",
      "wordMarkSpecification": {
        "verbalElement": "Chupa Chups (apple flavour)"
      }
    },
    {
      "applicantReference": "V 3663-002 EU CJT/KA",
      "applicants": [
        {
          "identifier": "272642",
          "name": "True Apple Ltd",
          "office": "EM"
        }
      ],
      "applicationDate": "1997-09-10",
      "applicationNumber": "000627596",
      "expiryDate": "2017-09-10",
      "markBasis": "EU_TRADEMARK",
      "markFeature": "FIGURATIVE",
      "markKind": "INDIVIDUAL",
      "niceClasses": [
        36,
        37,
        40
      ],
      "publications": [
        {
          "bulletinNumber": "1999/080",
          "publicationDate": "1999-10-11",
          "publicationSection": "A.1"
        },
        {
          "bulletinNumber": "2000/046",
          "publicationDate": "2000-06-13",
          "publicationSection": "B.2"
        },
        {
          "bulletinNumber": "2007/036",
          "publicationDate": "2007-07-23",
          "publicationSection": "C.2.1"
        },
        {
          "bulletinNumber": "2007/037",
          "publicationDate": "2007-07-30",
          "publicationSection": "C.1.1"
        },
        {
          "bulletinNumber": "2007/042",
          "publicationDate": "2007-08-13",
          "publicationSection": "C.2.1"
        },
        {
          "bulletinNumber": "2007/054",
          "publicationDate": "2007-09-24",
          "publicationSection": "D.1"
        },
        {
          "bulletinNumber": "2008/044",
          "publicationDate": "2008-11-03",
          "publicationSection": "C.2.1"
        }
      ],
      "registrationDate": "2000-05-03",
      "representatives": [
        {
          "identifier": "16424",
          "name": "SETTERWALLS",
          "office": "EM"
        }
      ],
      "status": "EXPIRED",
      "wordMarkSpecification": {
        "verbalElement": "THE BIG APPLE CONSULTING LTD"
      }
    },
    {
      "applicantReference": "CTM/971259/SJB 41355",
      "applicants": [
        {
          "identifier": "28281",
          "name": "ARJO WIGGINS APPLETON PLC",
          "office": "EM"
        }
      ],
      "applicationDate": "1997-12-10",
      "applicationNumber": "000703264",
      "expiryDate": "2017-12-10",
      "markBasis": "EU_TRADEMARK",
      "markFeature": "WORD",
      "markKind": "INDIVIDUAL",
      "niceClasses": [
        16
      ],
      "publications": [
        {
          "bulletinNumber": "1998/085",
          "publicationDate": "1998-11-09",
          "publicationSection": "A.1"
        },
        {
          "bulletinNumber": "1999/063",
          "publicationDate": "1999-08-09",
          "publicationSection": "B.1"
        },
        {
          "bulletinNumber": "2008/002",
          "publicationDate": "2008-01-14",
          "publicationSection": "D.1"
        },
        {
          "bulletinNumber": "2012/162",
          "publicationDate": "2012-08-27",
          "publicationSection": "C.2.1"
        },
        {
          "bulletinNumber": "2013/240",
          "publicationDate": "2013-12-18",
          "publicationSection": "C.2.1"
        },
        {
          "bulletinNumber": "2013/240",
          "publicationDate": "2013-12-18",
          "publicationSection": "C.2.1"
        },
        {
          "bulletinNumber": "2013/240",
          "publicationDate": "2013-12-18",
          "publicationSection": "C.2.1"
        },
        {
          "bulletinNumber": "2018/167",
          "publicationDate": "2018-09-04",
          "publicationSection": "C.2.2"
        },
        {
          "bulletinNumber": "2018/184",
          "publicationDate": "2018-09-27",
          "publicationSection": "C.2.1"
        }
      ],
      "registrationDate": "1999-06-08",
      "representatives": [
        {
          "identifier": "10095",
          "name": "WILDBORE & GIBBONS",
          "office": "EM"
        }
      ],
      "status": "EXPIRED",
      "wordMarkSpecification": {
        "verbalElement": "ARJO WIGGINS APPLETON"
      }
    }
  ],
  "totalElements": 739,
  "totalPages": 74,
  "size": 10,
  "page": 0
}