{
  "trademarks": [
    {
      "applicantReference": "86433/38994/AS",
      "applicants": [
        {
          "identifier": "191368",
          "name": "John Player & Sons Limited",
          "office": "EM"
        }
      ],
      "applicationDate": "1996-06-19",
      "applicationNumber": "000274084",
      "expiryDate": "2006-06-19",
      "markBasis": "EU_TRADEMARK",
      "markFeature": "FIGURATIVE",
      "markKind": "INDIVIDUAL",
      "niceClasses": [
        25,
        34
      ],
      "publications": [
        {
          "bulletinNumber": "1998/054",
          "publicationDate": "1998-07-20",
          "publicationSection": "A.1"
        },
        {
          "bulletinNumber": "1999/024",
          "publicationDate": "1999-03-29",
          "publicationSection": "B.2"
        },
        {
          "bulletinNumber": "2007/016",
          "publicationDate": "2007-04-23",
          "publicationSection": "C.1.1"
        },
        {
          "bulletinNumber": "2012/134",
          "publicationDate": "2012-07-17",
          "publicationSection": "C.1.3"
        }
      ],
      "registrationDate": "1999-02-10",
      "representatives": [
        {
          "identifier": "12100",
          "name": "STEVENS HEWLETT & PERKINS",
          "office": "EM"
        }
      ],
      "status": "EXPIRED",
      "wordMarkSpecification": {
        "verbalElement": "RIZLA+ INTERNATIONAL"
      }
    },
    {
      "applicantReference": "GMK 014",
      "applicants": [
        {
          "identifier": "12550",
          "name": "SCHAAY HOLDING B.V.",
          "office": "EM"
        }
      ],
      "applicationDate": "1996-06-18",
      "applicationNumber": "000274878",
      "expiryDate": "2006-06-18",
      "markBasis": "EU_TRADEMARK",
      "markFeature": "WORD",
      "markKind": "INDIVIDUAL",
      "niceClasses": [
        16,
        25,
        42
      ],
      "publications": [
        {
          "bulletinNumber": "1998/068",
          "publicationDate": "1998-09-07",
          "publicationSection": "A.1"
        },
        {
          "bulletinNumber": "1999/064",
          "publicationDate": "1999-08-16",
          "publicationSection": "B.1"
        }
      ],
      "registrationDate": "1999-06-21",
      "representatives": [
        {
          "identifier": "15768",
          "name": "DE MERKPLAATS B.V.",
          "office": "EM"
        }
      ],
      "status": "EXPIRED",
      "wordMarkSpecification": {
        "verbalElement": "SINNERS"
      }
    },
    {
      "applicantReference": "JDR/EC/RT1907",
      "applicants": [
        {
          "identifier": "12764",
          "name": "Jason Hamilton Hall",
          "office": "EM"
        }
      ],
      "applicationDate": "1996-06-19",
      "applicationNumber": "000274977",
      "markBasis": "EU_TRADEMARK",
      "markFeature": "WORD",
      "markKind": "INDIVIDUAL",
      "niceClasses": [
        18,
        25,
        28
      ],
      "publications": [
        {
          "bulletinNumber": "1997/036",
          "publicationDate": "1997-12-22",
          "publicationSection": "A.1"
        },
        {
          "bulletinNumber": "1998/099",
          "publicationDate": "1998-12-28",
          "publicationSection": "A.2.2"
        },
        {
          "bulletinNumber": "2007/042",
          "publicationDate": "2007-08-13",
          "publicationSection": "C.2.1"
        },
        {
          "bulletinNumber": "2007/045",
          "publicationDate": "2007-08-27",
          "publicationSection": "C.2.1"
        },
        {
          "bulletinNumber": "2009/033",
          "publicationDate": "2009-08-31",
          "publicationSection": "C.2.2"
        }
      ],
      "representatives": [
        {
          "identifier": "10767",
          "name": "MARKS & CLERK LLP",
          "office": "EM"
        }
      ],
      "status": "WITHDRAWN",
      "wordMarkSpecification": {
        "verbalElement": "ARAPHAT"
      }
    },
    {
      "applicantReference": "D 1435 EU",
      "applicants": [
        {
          "identifier": "12539",
          "name": "DITEC Informationstechnologie AG (Holding)",
          "office": "EM"
        }
      ],
      "applicationDate": "1996-06-13",
      "applicationNumber": "000274696",
      "markBasis": "EU_TRADEMARK",
      "markFeature": "FIGURATIVE",
      "markKind": "INDIVIDUAL",
      "niceClasses": [
        9,
        41,
        42
      ],
      "publications": [
        {
          "bulletinNumber": "1998/050",
          "publicationDate": "1998-07-13",
          "publicationSection": "A.1"
        },
        {
          "bulletinNumber": "2007/034",
          "publicationDate": "2007-07-16",
          "publicationSection": "C.2.1"
        },
        {
          "bulletinNumber": "2007/043",
          "publicationDate": "2007-08-20",
          "publicationSection": "C.2.1"
        },
        {
          "bulletinNumber": "2007/045",
          "publicationDate": "2007-08-27",
          "publicationSection": "C.2.1"
        },
        {
          "bulletinNumber": "2011/178",
          "publicationDate": "2011-09-20",
          "publicationSection": "C.10.2"
        }
      ],
      "representatives": [
        {
          "identifier": "10665",
          "name": "PRINZ & PARTNER MBB PATENT- UND RECHTSANW\u00c4LTE",
          "office": "EM"
        }
      ],
      "status": "WITHDRAWN",
      "wordMarkSpecification": {
        "verbalElement": "DITEC"
      }
    },
    {
      "applicantReference": "RJP/T5321",
      "applicants": [
        {
          "identifier": "394726",
          "name": "Quintiles Transnational Corp.",
          "office": "EM"
        }
      ],
      "applicationDate": "1996-06-12",
      "applicationNumber": "000274431",
      "markBasis": "EU_TRADEMARK",
      "markFeature": "WORD",
      "markKind": "INDIVIDUAL",
      "niceClasses": [
        42
      ],
      "publications": [
        {
          "bulletinNumber": "2007/023",
          "publicationDate": "2007-06-11",
          "publicationSection": "C.1.3"
        },
        {
          "bulletinNumber": "2011/232",
          "publicationDate": "2011-12-08",
          "publicationSection": "C.1.3"
        }
      ],
      "representatives": [
        {
          "identifier": "10748",
          "name": "APPLEYARD LEES IP LLP",
          "office": "EM"
        }
      ],
      "status": "WITHDRAWN",
      "wordMarkSpecification": {
        "verbalElement": "THE DIFFERENCE IS SIGNIFICANT "
      }
    },
    {
      "applicants": [
        {
          "identifier": "12514",
          "name": "ENSIGMA LIMITED",
          "office": "EM"
        }
      ],
      "applicationDate": "1996-06-11",
      "applicationNumber": "000274365",
      "expiryDate": "2006-06-11",
      "markBasis": "EU_TRADEMARK",
      "markFeature": "WORD",
      "markKind": "INDIVIDUAL",
      "niceClasses": [
        9,
        16,
        42
      ],
      "publications": [
        {
          "bulletinNumber": "1997/036",
          "publicationDate": "1997-12-22",
          "publicationSection": "A.1"
        },
        {
          "bulletinNumber": "1998/065",
          "publicationDate": "1998-08-31",
          "publicationSection": "B.1"
        }
      ],
      "registrationDate": "1998-05-26",
      "representatives": [
        {
          "identifier": "11536",
          "name": "WYNNE-JONES IP LIMITED",
          "office": "EM"
        }
      ],
      "status": "EXPIRED",
      "wordMarkSpecification": {
        "verbalElement": "ENSIGMA"
      }
    },
    {
      "applicantReference": "CA",
      "applicants": [
        {
          "identifier": "110985",
          "name": "Nortel Networks Inc.",
          "office": "EM"
        }
      ],
      "applicationDate": "1996-06-12",
      "applicationNumber": "000274753",
      "expiryDate": "2006-06-12",
      "markBasis": "EU_TRADEMARK",
      "markFeature": "WORD",
      "markKind": "INDIVIDUAL",
      "niceClasses": [
        9
      ],
      "publications": [
        {
          "bulletinNumber": "1998/005",
          "publicationDate": "1998-01-19",
          "publicationSection": "A.1"
        },
        {
          "bulletinNumber": "1999/005",
          "publicationDate": "1999-01-18",
          "publicationSection": "B.2"
        },
        {
          "bulletinNumber": "2007/024",
          "publicationDate": "2007-06-11",
          "publicationSection": "C.2.1"
        },
        {
          "bulletinNumber": "2007/049",
          "publicationDate": "2007-09-10",
          "publicationSection": "C.2.2"
        },
        {
          "bulletinNumber": "2007/049",
          "publicationDate": "2007-09-10",
          "publicationSection": "C.2.2"
        },
        {
          "bulletinNumber": "2009/025",
          "publicationDate": "2009-07-06",
          "publicationSection": "C.2.2"
        }
      ],
      "registrationDate": "1998-09-11",
      "representatives": [
        {
          "identifier": "11844",
          "name": "MAUCHER JENKINS",
          "office": "EM"
        }
      ],
      "status": "EXPIRED",
      "wordMarkSpecification": {
        "verbalElement": "NETSTICK"
      }
    },
    {
      "applicants": [
        {
          "identifier": "12498",
          "name": "BENDIGO INTERNATIONAL",
          "office": "EM"
        }
      ],
      "applicationDate": "1996-05-30",
      "applicationNumber": "000274142",
      "expiryDate": "2006-05-30",
      "markBasis": "EU_TRADEMARK",
      "markFeature": "WORD",
      "markKind": "INDIVIDUAL",
      "niceClasses": [
        18,
        24,
        25
      ],
      "publications": [
        {
          "bulletinNumber": "1998/091",
          "publicationDate": "1998-11-30",
          "publicationSection": "A.1"
        },
        {
          "bulletinNumber": "1999/059",
          "publicationDate": "1999-07-26",
          "publicationSection": "B.1"
        }
      ],
      "registrationDate": "1999-05-31",
      "representatives": [
        {
          "identifier": "10633",
          "name": "FRKELLY",
          "office": "EM"
        }
      ],
      "status": "EXPIRED",
      "wordMarkSpecification": {
        "verbalElement": "BENDIGO"
      }
    },
    {
      "applicantReference": "ER 777T52017A",
      "applicants": [
        {
          "identifier": "12504",
          "name": "Ashbury Confectionery Limited",
          "office": "EM"
        }
      ],
      "applicationDate": "1996-06-19",
      "applicationNumber": "000274209",
      "expiryDate": "2006-06-19",
      "markBasis": "EU_TRADEMARK",
      "markFeature": "WORD",
      "markKind": "INDIVIDUAL",
      "niceClasses": [
        30
      ],
      "publications": [
        {
          "bulletinNumber": "1997/036",
          "publicationDate": "1997-12-22",
          "publicationSection": "A.1"
        },
        {
          "bulletinNumber": "1999/005",
          "publicationDate": "1999-01-18",
          "publicationSection": "B.2"
        },
        {
          "bulletinNumber": "2007/042",
          "publicationDate": "2007-08-13",
          "publicationSection": "C.2.1"
        }
      ],
      "registrationDate": "1998-09-11",
      "representatives": [
        {
          "identifier": "10578",
          "name": "MARKS & CLERK LLP",
          "office": "EM"
        }
      ],
      "status": "EXPIRED",
      "wordMarkSpecification": {
        "verbalElement": "THE DARK ALTERNATIVE"
      }
    },
    {
      "applicantReference": "M-9137",
      "applicants": [
        {
          "identifier": "145891",
          "name": "IBEX AG",
          "office": "EM"
        }
      ],
      "applicationDate": "1996-12-05",
      "applicationNumber": "000274019",
      "expiryDate": "2006-12-05",
      "markBasis": "EU_TRADEMARK",
      "markFeature": "FIGURATIVE",
      "markKind": "INDIVIDUAL",
      "niceClasses": [
        9
      ],
      "publications": [
        {
          "bulletinNumber": "1998/062",
          "publicationDate": "1998-08-17",
          "publicationSection": "A.1"
        },
        {
          "bulletinNumber": "2001/055",
          "publicationDate": "2001-06-25",
          "publicationSection": "B.2"
        },
        {
          "bulletinNumber": "2007/013",
          "publicationDate": "2007-04-02",
          "publicationSection": "C.2.4"
        },
        {
          "bulletinNumber": "2007/019",
          "publicationDate": "2007-05-14",
          "publicationSection": "C.1.1"
        },
        {
          "bulletinNumber": "2007/024",
          "publicationDate": "2007-06-11",
          "publicationSection": "C.2.3"
        },
        {
          "bulletinNumber": "2007/038",
          "publicationDate": "2007-07-30",
          "publicationSection": "C.2.2"
        },
        {
          "bulletinNumber": "2007/040",
          "publicationDate": "2007-08-06",
          "publicationSection": "C.2.1"
        }
      ],
      "registrationDate": "2001-05-14",
      "representatives": [
        {
          "identifier": "23130",
          "name": "KLINGER & KOLLEGEN",
          "office": "EM"
        }
      ],
      "status": "EXPIRED",
      "wordMarkSpecification": {
        "verbalElement": "IBEX"
      }
    }
  ],
  "totalElements": 2354583,
  "totalPages": 235459,
  "size": 10,
  "page": 0
}